{
    "success": true,
    "meta": {
        "page": 1,
        "limit": 10,
        "total": 108348,
        "total_pages": 10835
    },
    "data": [
        {
            "id_berita": 117901,
            "id_channel": 5,
            "id_categories": null,
            "judul": "Pedagang Melon di Pasar Gede Solo Rasakan Peningkatan Ekonomi Sejak Ada MBG",
            "judul_atas": null,
            "sub_judul": null,
            "penulis": "Khaerul Anam",
            "oleh": null,
            "wartawan": "Tim Redaksi",
            "id_wartawan": 38,
            "tanggal_tayang": "2026-04-06",
            "waktu": "10:52:00",
            "headline": "0",
            "publish": "1",
            "tag": "Pedagang, Melon, Pasar Gede, Solo, Peningkatan, Ekonomi, MBG",
            "gambar_detail": "2026\/04\/pedagang-melon-di-pasar-gede-solo-rasakan-peningkatan-ekonomi-sejak-ada-mbg-06042026-104314.png",
            "fokus": 1,
            "caption": "Pedagang Melon di Pasar Gede Solo (SinPo.id\/Bakim RI)",
            "counter": 0,
            "datakategori": null,
            "datachannel": {
                "id": 5,
                "nama": "EKBIS",
                "tipe": "2",
                "navigasi": "1",
                "flag": "1",
                "urut": null
            },
            "datawartawan": {
                "id_wartawan": 38,
                "nama_wartawan": "Tim Redaksi",
                "email": "",
                "foto": "gambar\/foto\/wartawan\/tim-redaksi.png",
                "fb": null,
                "quotes": null,
                "status": 1
            }
        },
        {
            "id_berita": 117900,
            "id_channel": 2,
            "id_categories": null,
            "judul": "Amelia: Perintah Prajurit TNI Berlindung di Bunker Lebanon Langkah Evaluasi Taktis",
            "judul_atas": null,
            "sub_judul": null,
            "penulis": "Bayu Primanda",
            "oleh": null,
            "wartawan": "Juven Martua Sitompul",
            "id_wartawan": 71,
            "tanggal_tayang": "2026-04-06",
            "waktu": "10:37:00",
            "headline": "0",
            "publish": "1",
            "tag": "Prajurit TNI, Panglima TNI, Lebanon, Perang Timur Tengah, Pasukan Perdamaian Dunia, Komisi I DPR, DPR RI, Parlemen, Amelia Anggraini",
            "gambar_detail": "2025\/10\/amelia-ajak-seluruh-fraksi-di-dpr-beri-ruang-kepemimpinan-perempuan-31102025-092545.jpg",
            "fokus": 1,
            "caption": "Anggota DPR RI dari Fraksi Partai NasDem Amelia Anggraini. Istimewa",
            "counter": 10,
            "datakategori": null,
            "datachannel": {
                "id": 2,
                "nama": "POLITIK",
                "tipe": "2",
                "navigasi": "1",
                "flag": "1",
                "urut": null
            },
            "datawartawan": {
                "id_wartawan": 71,
                "nama_wartawan": "Juven Martua Sitompul",
                "email": "",
                "foto": "gambar\/foto\/wartawan\/tim-redaksi.png",
                "fb": null,
                "quotes": null,
                "status": 1
            }
        },
        {
            "id_berita": 117899,
            "id_channel": 6,
            "id_categories": null,
            "judul": "Melintas di Langit Lampung dan Banten, Objek Terang Ternyata Sampah Antariksa",
            "judul_atas": null,
            "sub_judul": null,
            "penulis": "Khaerul Anam",
            "oleh": null,
            "wartawan": "Tim Redaksi",
            "id_wartawan": 38,
            "tanggal_tayang": "2026-04-06",
            "waktu": "10:17:00",
            "headline": "0",
            "publish": "1",
            "tag": "BRIN, Antariksa, Sampah",
            "gambar_detail": "2026\/04\/melintas-di-langit-lampung-dan-banten-objek-terang-ternyata-sampah-antariksa-06042026-102135.webp",
            "fokus": 1,
            "caption": "Sampah antariksa melintas di langit (SinPo.id\/ tangkapan layar\/ IG : @wargatangsel)",
            "counter": 22,
            "datakategori": null,
            "datachannel": {
                "id": 6,
                "nama": "PERISTIWA",
                "tipe": "2",
                "navigasi": "1",
                "flag": "1",
                "urut": null
            },
            "datawartawan": {
                "id_wartawan": 38,
                "nama_wartawan": "Tim Redaksi",
                "email": "",
                "foto": "gambar\/foto\/wartawan\/tim-redaksi.png",
                "fb": null,
                "quotes": null,
                "status": 1
            }
        },
        {
            "id_berita": 117898,
            "id_channel": 6,
            "id_categories": null,
            "judul": "Bikin Resahkan Warga, Pemprov DKI Jakarta Tertibkan Banner hingga Videotron Iklan Film Horor",
            "judul_atas": null,
            "sub_judul": null,
            "penulis": "Khaerul Anam",
            "oleh": null,
            "wartawan": "Tim Redaksi",
            "id_wartawan": 38,
            "tanggal_tayang": "2026-04-06",
            "waktu": "09:42:00",
            "headline": "0",
            "publish": "1",
            "tag": "Satpol PP, Iklan, Film Horor",
            "gambar_detail": "2026\/02\/satpol-pp-dki-kerahkan-1900-personel-cegah-tawuran-di-jakarta-selama-ramadan-18022026-224405.jpg",
            "fokus": 1,
            "caption": "Satpol PP DKI Jakarta (SinPo.id\/Beritajakarta)",
            "counter": 16,
            "datakategori": null,
            "datachannel": {
                "id": 6,
                "nama": "PERISTIWA",
                "tipe": "2",
                "navigasi": "1",
                "flag": "1",
                "urut": null
            },
            "datawartawan": {
                "id_wartawan": 38,
                "nama_wartawan": "Tim Redaksi",
                "email": "",
                "foto": "gambar\/foto\/wartawan\/tim-redaksi.png",
                "fb": null,
                "quotes": null,
                "status": 1
            }
        },
        {
            "id_berita": 117897,
            "id_channel": 6,
            "id_categories": null,
            "judul": "Dari Sasak Bambu ke Beton, Warga Kelurahan Sambeng Kini Nikmati Jembatan Permanen",
            "judul_atas": null,
            "sub_judul": null,
            "penulis": "Khaerul Anam",
            "oleh": null,
            "wartawan": "Tim Redaksi",
            "id_wartawan": 38,
            "tanggal_tayang": "2026-04-06",
            "waktu": "09:20:00",
            "headline": "0",
            "publish": "1",
            "tag": "Jembatan, Boyolali, Beton",
            "gambar_detail": "2026\/04\/dari-sasak-bambu-ke-beton-warga-kelurahan-sambeng-kini-nikmati-jembatan-permanen-06042026-095919.jpg",
            "fokus": 1,
            "caption": "Pembangunan Jembatan Beton di Kelurahan Sambeng, Boyolali (SinPo.id\/Bakom RI)",
            "counter": 16,
            "datakategori": null,
            "datachannel": {
                "id": 6,
                "nama": "PERISTIWA",
                "tipe": "2",
                "navigasi": "1",
                "flag": "1",
                "urut": null
            },
            "datawartawan": {
                "id_wartawan": 38,
                "nama_wartawan": "Tim Redaksi",
                "email": "",
                "foto": "gambar\/foto\/wartawan\/tim-redaksi.png",
                "fb": null,
                "quotes": null,
                "status": 1
            }
        },
        {
            "id_berita": 117896,
            "id_channel": 18,
            "id_categories": null,
            "judul": "Ukraina Dilanda Krisis Wajib Militer, 2 Juta Orang Mangkir di Tengah Perang",
            "judul_atas": null,
            "sub_judul": null,
            "penulis": "Khaerul Anam",
            "oleh": null,
            "wartawan": "Galuh Ratnatika",
            "id_wartawan": 69,
            "tanggal_tayang": "2026-04-06",
            "waktu": "08:12:00",
            "headline": "0",
            "publish": "1",
            "tag": "Wajib Militer, Ukraina, Zelensky, Timur Tengah",
            "gambar_detail": "2026\/04\/ukraina-dilanda-krisis-wajib-militer-2-juta-orang-mangkir-di-tengah-perang-06042026-075104.jpg",
            "fokus": 1,
            "caption": "Ilustrasi tentara Ukraina (SinPo.id\/AP)",
            "counter": 25,
            "datakategori": null,
            "datachannel": {
                "id": 18,
                "nama": "DUNIA",
                "tipe": "2",
                "navigasi": "1",
                "flag": "1",
                "urut": null
            },
            "datawartawan": {
                "id_wartawan": 69,
                "nama_wartawan": "Galuh Ratnatika",
                "email": "",
                "foto": "gambar\/foto\/wartawan\/tim-redaksi.png",
                "fb": null,
                "quotes": null,
                "status": 1
            }
        },
        {
            "id_berita": 117895,
            "id_channel": 2,
            "id_categories": null,
            "judul": "Muzani Sampaikan Salam Prabowo ke Ulama di Yogya, Bahas Persatuan hingga Peran Muhammadiyah",
            "judul_atas": null,
            "sub_judul": null,
            "penulis": "Ardi",
            "oleh": null,
            "wartawan": "Tim Redaksi",
            "id_wartawan": 38,
            "tanggal_tayang": "2026-04-06",
            "waktu": "07:16:00",
            "headline": "0",
            "publish": "1",
            "tag": "Ahmad Muzani, MPR, Muhammadiyah",
            "gambar_detail": "2026\/02\/pidato-di-hut-ke-18-gerindra-muzani-serukan-prabowo-presiden-dua-periode-06022026-183903.jpg",
            "fokus": 1,
            "caption": "Ahmad Muzani (SinPo.id\/ Instagram)",
            "counter": 0,
            "datakategori": null,
            "datachannel": {
                "id": 2,
                "nama": "POLITIK",
                "tipe": "2",
                "navigasi": "1",
                "flag": "1",
                "urut": null
            },
            "datawartawan": {
                "id_wartawan": 38,
                "nama_wartawan": "Tim Redaksi",
                "email": "",
                "foto": "gambar\/foto\/wartawan\/tim-redaksi.png",
                "fb": null,
                "quotes": null,
                "status": 1
            }
        },
        {
            "id_berita": 117894,
            "id_channel": 18,
            "id_categories": null,
            "judul": "Donald Trump Didesak Dicopot Lewat Amandemen ke-25 Usai Ucap Pesan Kasar ke Iran",
            "judul_atas": null,
            "sub_judul": null,
            "penulis": "Ardi",
            "oleh": null,
            "wartawan": "Tim Redaksi",
            "id_wartawan": 38,
            "tanggal_tayang": "2026-04-06",
            "waktu": "06:07:00",
            "headline": "0",
            "publish": "1",
            "tag": "Amerika Serikat, Donald Trump, Iran",
            "gambar_detail": "2026\/03\/trump-akan-kirim-lebih-banyak-pasukan-ke-timur-tengah-25032026-090237.jpg",
            "fokus": 1,
            "caption": "Presiden Amerika Serikat (AS) Donald Trump. (SinPo.id\/Getty Images)",
            "counter": 535,
            "datakategori": null,
            "datachannel": {
                "id": 18,
                "nama": "DUNIA",
                "tipe": "2",
                "navigasi": "1",
                "flag": "1",
                "urut": null
            },
            "datawartawan": {
                "id_wartawan": 38,
                "nama_wartawan": "Tim Redaksi",
                "email": "",
                "foto": "gambar\/foto\/wartawan\/tim-redaksi.png",
                "fb": null,
                "quotes": null,
                "status": 1
            }
        },
        {
            "id_berita": 117893,
            "id_channel": 18,
            "id_categories": null,
            "judul": "Analis GOP: Donald Trump Bisa Picu 'Tragedi Terbesar' dalam Sejarah Kebijakan Luar Negeri AS",
            "judul_atas": null,
            "sub_judul": null,
            "penulis": "Ardi",
            "oleh": "Raw Story",
            "wartawan": "Tim Redaksi",
            "id_wartawan": 38,
            "tanggal_tayang": "2026-04-06",
            "waktu": "06:05:00",
            "headline": "0",
            "publish": "1",
            "tag": "Iran, Amerika Serikat, Israel, Donald Trump",
            "gambar_detail": "2026\/03\/presiden-amerika-serikat-as-donald-trump-sinpoidgetty-images-1-31032026-083900.jpg",
            "fokus": 1,
            "caption": "Presiden Amerika Serikat (AS) Donald Trump. (SinPo.id\/Getty Images)",
            "counter": 107,
            "datakategori": null,
            "datachannel": {
                "id": 18,
                "nama": "DUNIA",
                "tipe": "2",
                "navigasi": "1",
                "flag": "1",
                "urut": null
            },
            "datawartawan": {
                "id_wartawan": 38,
                "nama_wartawan": "Tim Redaksi",
                "email": "",
                "foto": "gambar\/foto\/wartawan\/tim-redaksi.png",
                "fb": null,
                "quotes": null,
                "status": 1
            }
        },
        {
            "id_berita": 117891,
            "id_channel": 18,
            "id_categories": null,
            "judul": "Tim Penyelamat Israel Cari Korban Hilang Usai Serangan Rudal Iran di Haifa",
            "judul_atas": null,
            "sub_judul": null,
            "penulis": "Ardi",
            "oleh": null,
            "wartawan": "Tim Redaksi",
            "id_wartawan": 38,
            "tanggal_tayang": "2026-04-06",
            "waktu": "05:59:00",
            "headline": "0",
            "publish": "1",
            "tag": "Iran, Amerika Serikat, Israel, Haifa",
            "gambar_detail": "2026\/04\/tim-penyelamat-israel-cari-korban-hilang-usai-serangan-rudal-iran-di-haifa-06042026-040039.jpg",
            "fokus": 1,
            "caption": "puing bangunan (pixabay)",
            "counter": 56,
            "datakategori": null,
            "datachannel": {
                "id": 18,
                "nama": "DUNIA",
                "tipe": "2",
                "navigasi": "1",
                "flag": "1",
                "urut": null
            },
            "datawartawan": {
                "id_wartawan": 38,
                "nama_wartawan": "Tim Redaksi",
                "email": "",
                "foto": "gambar\/foto\/wartawan\/tim-redaksi.png",
                "fb": null,
                "quotes": null,
                "status": 1
            }
        }
    ]
}